Analyzing independently assayed scATAC-seq and scRNA-seq data using FigR • FigR
…
We can also just get the full ranked table of genes and number of significantly associated peaks, instead of only getting the gene names (so you can threshold yourself)

# Unfiltered
numDorcs <- cisCorr.filt %>% group_by(Gene) %>% tally() %>% arrange(desc(n))
numDorcs

#> # A tibble: 9,272 x 2
#>    Gene         n
#>    <chr>    <int>
#>  1 IL7R        23
#>  2 TCF7        23
#>  3 CD83        22
#>  4 SEMA7A      20
#>  5 APOBEC3G    19
#>  6 CCR7        18
#>  7 CD8A        18
#>  8 PAX5        18
#>  9 SLC7A5      18
#> 10 ANPEP       17
#> # ... with 9,262 more rows
…
