Application of FigR to SHARE-seq skin data • FigR
…
We can also just get the full ranked table of genes and number of significantly associated peaks, instead of only getting the gene names (so you can threshold yourself)

# Unfiltered
numDorcs <- cisCorr.filt %>% group_by(Gene) %>% tally() %>% arrange(desc(n))
numDorcs

#> # A tibble: 12,765 x 2
#>    Gene       n
#>    <chr>  <int>
#>  1 Notch1    50
#>  2 Atf3      48
#>  3 Gfpt2     41
#>  4 Col1a2    40
#>  5 Col3a1    37
#>  6 Ifrd1     37
#>  7 Emp1      36
#>  8 Thbs1     36
#>  9 Cyr61     33
#> 10 Ezr       33
#> # ... with 12,755 more rows
…
